2.407796944808959836e+02
2.617039451599121236e+01
1.704324992179870435e+01
1.494140314102172873e+01
1.396705122947692956e+01
1.298358078002929616e+01
1.215459115028381376e+01
1.144828554153442468e+01
1.071952233314514125e+01
1.003428254127502406e+01
9.569710884094238423e+00
9.106374578475952219e+00
8.688473153114319558e+00
8.448293952941893892e+00
8.062080130577086834e+00
7.942651019096374831e+00
7.582698621749877965e+00
7.494014573097229182e+00
7.345348639488220144e+00
7.259714436531067072e+00
7.127181801795959615e+00
7.015477213859558248e+00
6.925447072982787944e+00
6.790363407135009410e+00
6.739545164108275976e+00
6.699149332046508754e+00
6.664599366188049601e+00
6.632731657028198669e+00
6.558080511093139719e+00
6.536102061271667374e+00
6.507792930603027770e+00
6.490232534408569620e+00
6.369119949340820597e+00
6.141617059707641602e+00
6.107336335182189657e+00
5.997116417884826411e+00
5.888439712524413672e+00
5.850349230766296316e+00
5.762593979835510360e+00
5.793834152221680078e+00
5.696015858650207875e+00
5.754218883514404581e+00
5.710726575851440501e+00
5.690417037010193191e+00
5.732999858856200781e+00
5.562361593246460068e+00
5.601777133941650000e+00
5.485101566314697585e+00
5.512638902664184215e+00
5.553312873840331676e+00
