2.482571741676330532e+02
2.654433591842651197e+01
1.843222156524658217e+01
1.654750782012939325e+01
1.550194682121276912e+01
1.463471666336059585e+01
1.376167654037475607e+01
1.296970993995666532e+01
1.232761204719543535e+01
1.174625503540038984e+01
1.130656785964965749e+01
1.081181883811950684e+01
1.047817515373230002e+01
1.015780682563781667e+01
9.769804687500000639e+00
9.691561279296875497e+00
9.475097627639771147e+00
9.211261787414549929e+00
9.097747526168824095e+00
8.928093409538268688e+00
8.777113432884215527e+00
8.667171778678893546e+00
8.674512605667114684e+00
8.564518356323242543e+00
8.151909813880919842e+00
8.122966814041138406e+00
8.056869239807129546e+00
8.072856764793396422e+00
7.968272657394408931e+00
7.888319225311279048e+00
7.834587926864624130e+00
7.838176331520080531e+00
7.631530852317809810e+00
7.586109485626220561e+00
7.562029223442078063e+00
7.594088182449341140e+00
7.548851895332336248e+00
7.529196934700012278e+00
7.471617736816406286e+00
7.418328461647033301e+00
7.433351802825927557e+00
7.374490776062011754e+00
7.236755528450012243e+00
7.248862328529358301e+00
7.241239719390868856e+00
7.287627229690551545e+00
7.228496985435485911e+00
7.124678030014037766e+00
7.110854187011718786e+00
7.140267343521117915e+00
